<?xml version="1.0" encoding="utf-8"?>
<!-- Generator: Adobe Illustrator 23.0.1, SVG Export Plug-In . SVG Version: 6.00 Build 0)  -->
<svg version="1.1" id="Layer_1" class="diagonal-bottom" xmlns="http://www.w3.org/2000/svg" xmlns:xlink="http://www.w3.org/1999/xlink" x="0px" y="0px"
	 width="10000px" height="968.75px" viewBox="0 0 10000 968.75" style="enable-background:new 0 0 10000 968.75;"
	 xml:space="preserve">
<polygon points="0,968.75 0,0 10000,0 "/>
</svg>
